<svg width="24" height="24" viewBox="0 0 24 24" fill="none" xmlns="http://www.w3.org/2000/svg">
<g id="Fonts / delete">
<path id="icon" fill-rule="evenodd" clip-rule="evenodd" d="M9.54563 3H14.4547C15.3585 3 16.0911 3.73262 16.0911 4.63636V5.45455H18.5456C19.4494 5.45455 20.182 6.18717 20.182 7.09091V8.72727C20.182 9.63101 19.4494 10.3636 18.5456 10.3636H18.4798L17.7272 19.3631C17.7272 20.2668 16.9946 20.9995 16.0908 20.9995H7.909C7.00526 20.9995 6.27263 20.2668 6.27546 19.431L5.51984 10.3636H5.45472C4.55098 10.3636 3.81836 9.63101 3.81836 8.72727V7.09091C3.81836 6.18717 4.55098 5.45455 5.45472 5.45455H7.90927V4.63636C7.90927 3.73262 8.64189 3 9.54563 3ZM7.90927 7.09091V7.09038H5.45455V8.72674H18.5455V7.09038H16.0911V7.09091H7.90927ZM7.90828 19.3638L7.16087 10.3638H16.8373L16.0929 19.2959L16.0901 19.3638H7.90828ZM14.4547 4.63636V5.45455H9.54563V4.63636H14.4547ZM8.96733 12.5786L10.1244 11.4215L12.0004 13.2975L13.8764 11.4215L15.0335 12.5786L13.1575 14.4546L15.0335 16.3306L13.8764 17.4877L12.0004 15.6117L10.1244 17.4877L8.96733 16.3306L10.8433 14.4546L8.96733 12.5786Z" fill="white"/>
</g>
</svg>
