<svg width="44" height="14" viewBox="0 0 44 14" fill="none" xmlns="http://www.w3.org/2000/svg">
<path d="M19.1625 13.2274H15.7148L17.8713 0.8125H21.3187L19.1625 13.2274Z" fill="white"/>
<path d="M31.6623 1.11644C30.9823 0.865245 29.9037 0.587891 28.5701 0.587891C25.1654 0.587891 22.7678 2.27835 22.7531 4.69519C22.7249 6.47833 24.4697 7.46873 25.7747 8.06329C27.1086 8.67083 27.562 9.06738 27.562 9.60892C27.5484 10.4406 26.4842 10.824 25.4915 10.824C24.1151 10.824 23.3776 10.6264 22.2567 10.1636L21.8028 9.96527L21.3203 12.7522C22.1289 13.0952 23.6187 13.3995 25.1654 13.4129C28.7829 13.4129 31.138 11.7486 31.1659 9.17306C31.1797 7.75978 30.2583 6.67687 28.272 5.79197C27.0662 5.22392 26.3277 4.84089 26.3277 4.25967C26.3418 3.7313 26.9523 3.1901 28.3135 3.1901C29.4343 3.1636 30.2578 3.41445 30.8816 3.66547L31.1935 3.7973L31.6623 1.11644Z" fill="white"/>
<path d="M36.2442 8.82927C36.5282 8.11604 37.6207 5.35567 37.6207 5.35567C37.6064 5.38217 37.9041 4.62928 38.0743 4.16708L38.3153 5.23683C38.3153 5.23683 38.9681 8.20855 39.1099 8.82927C38.5711 8.82927 36.9252 8.82927 36.2442 8.82927ZM40.4999 0.8125H37.8332C37.0108 0.8125 36.386 1.03684 36.0312 1.84257L30.9102 13.2273H34.5277C34.5277 13.2273 35.1232 11.695 35.2513 11.3649C35.6481 11.3649 39.1672 11.3649 39.6778 11.3649C39.7767 11.8008 40.0891 13.2273 40.0891 13.2273H43.2813L40.4999 0.8125Z" fill="white"/>
<path d="M12.8362 0.8125L9.45979 9.2783L9.09083 7.56133C8.46661 5.58018 6.50891 3.4277 4.32422 2.35743L7.41687 13.2143H11.0627L16.4818 0.8125H12.8362Z" fill="white"/>
<path d="M6.32439 0.8125H0.777451L0.720703 1.06335C5.04767 2.0936 7.91333 4.57697 9.0907 7.56186L7.88486 1.85609C7.68634 1.06317 7.07625 0.838656 6.32439 0.8125Z" fill="#FAA61A"/>
</svg>
